<?xml version="1.0" encoding="utf-8"?>
<!-- Generator: Adobe Illustrator 23.0.5, SVG Export Plug-In . SVG Version: 6.00 Build 0)  -->
<svg version="1.1" id="Layer_1" xmlns="http://www.w3.org/2000/svg" xmlns:xlink="http://www.w3.org/1999/xlink" x="0px" y="0px"
	 viewBox="0 0 2000 2000" style="enable-background:new 0 0 2000 2000;" xml:space="preserve">
<style type="text/css">
	.st0{fill:#424685;}
	.st1{fill:#FFFFFF;}
</style>
<g>
	<path class="st0" d="M644.84,1875.41c-268.95,13.7-391.15-87.66-476.64-243.92c-254.99-466.06-7.13-1226.15,475.1-1459.85
		c128.99-62.51,260.76-64.84,389.48-4.06c395.85,186.91,672,494.51,856.8,883.69c84.75,178.47,51.15,348.34-134.33,448.62
		C1383.54,1700.86,977.35,1800.01,644.84,1875.41z"/>
	<g>
		<path class="st1" d="M1031.37,466.69c0-19.01,51.58-28.53,154.77-28.53c103.18,0,154.77,9.52,154.77,28.53v654.76
			c0,97-34.73,176.17-104.13,237.51c-69.43,61.34-165.25,92.01-287.44,92.01c-122.21,0-221.6-31.61-298.14-94.86
			c-76.56-63.23-114.83-148.57-114.83-256.05V468.12c0-19.01,51.58-28.53,154.77-28.53c103.18,0,154.77,9.52,154.77,28.53v643.34
			c0,19.04,9.99,34.24,29.96,45.65c20.91,11.41,42.79,17.12,65.62,17.12c22.82,0,43.51-5.22,62.05-15.69
			c18.54-10.45,27.82-26.15,27.82-47.08V466.69z"/>
	</g>
</g>
</svg>
